{
  "artifactGenerations" : [ ],
  "artifactId" : "test",
  "groupId" : "org.finos.legend",
  "metamodelDependencies" : [ ],
  "projectDependencies" : [ ],
  "projectId" : "46201444",
  "projectStructureVersion" : {
    "extensionVersion" : 2,
    "version" : 12
  }
}